^C:\USERS\БРОДОМИР\DESKTOP\ПРОЕКТ2\ПРОЕКТ2\MAIN.CPP
/c /ZI /nologo /W3 /WX- /sdl /Od /Oy- /D _UNICODE /D UNICODE /Gm /EHsc /RTC1 /MDd /GS /fp:precise /Zc:wchar_t /Zc:forScope /Fo"DEBUG\\" /Fd"DEBUG\VC120.PDB" /Gd /TP /analyze- C:\USERS\БРОДОМИР\DESKTOP\ПРОЕКТ2\ПРОЕКТ2\MAIN.CPP
^C:\USERS\БРОДОМИР\DESKTOP\NODES\ПРОЕКТ2\MAIN.CPP
/c /ZI /nologo /W3 /WX- /sdl /Od /Oy- /D _UNICODE /D UNICODE /Gm /EHsc /RTC1 /MDd /GS /fp:precise /Zc:wchar_t /Zc:forScope /Fo"DEBUG\\" /Fd"DEBUG\VC120.PDB" /Gd /TP /analyze- C:\USERS\БРОДОМИР\DESKTOP\NODES\ПРОЕКТ2\MAIN.CPP
^C:\USERS\БРОДОМИР\DESKTOP\CODING\С++\SFML\PLANET\ПРОЕКТ2\MAIN.CPP
/c /I"C:\Libs\SFML-2.2\include" /ZI /nologo /W3 /WX- /sdl /Od /Oy- /D _UNICODE /D UNICODE /Gm /EHsc /RTC1 /MDd /GS /fp:precise /Zc:wchar_t /Zc:forScope /Fo"DEBUG\\" /Fd"DEBUG\VC120.PDB" /Gd /TP /analyze- C:\USERS\БРОДОМИР\DESKTOP\CODING\С++\SFML\PLANET\ПРОЕКТ2\MAIN.CPP
